C:\Users\Mauro\Desktop\Universidad\Practica de Programacion\Operaciones_Matematicas\src\main\java\Parte_g\Ventana.java
C:\Users\Mauro\Desktop\Universidad\Practica de Programacion\Operaciones_Matematicas\src\main\java\Validaciones_y_Formulas\formulas.java
C:\Users\Mauro\Desktop\Universidad\Practica de Programacion\Operaciones_Matematicas\src\main\java\Main\Main.java
C:\Users\Mauro\Desktop\Universidad\Practica de Programacion\Operaciones_Matematicas\src\main\java\Validaciones_y_Formulas\Validaciones.java
